(footprint "0805-NO" (version 20221018) (generator pcbnew)
  (layer "F.Cu")
  (fp_text reference "REF**" (at 2.032 0.127) (layer "F.SilkS")
      (effects (font (size 0.666496 0.666496) (thickness 0.146304)) (justify left bottom))
    (tstamp 0eb0b81a-b8ab-45dd-87e7-b704ef59bad2)
  )
  (fp_text value "0805-NO" (at 2.032 0.762) (layer "F.Fab")
      (effects (font (size 0.36576 0.36576) (thickness 0.04064)) (justify left bottom))
    (tstamp ca6c3063-cbbf-4e65-b4a8-5577e5a912d7)
  )
  (fp_line (start 0 -0.508) (end 0 0.508)
    (stroke (width 0.3048) (type solid)) (layer "F.SilkS") (tstamp ea7879cf-2483-4edc-9163-0bc9ede30e2b))
  (fp_line (start -0.381 -0.66) (end 0.381 -0.66)
    (stroke (width 0.1016) (type solid)) (layer "F.Fab") (tstamp d1b52f0f-fa8f-465d-8e8d-6ec73563f177))
  (fp_line (start -0.356 0.66) (end 0.381 0.66)
    (stroke (width 0.1016) (type solid)) (layer "F.Fab") (tstamp 1e9f8302-4b6e-447e-8405-f874c98a9817))
  (fp_poly
    (pts
      (xy -1.0922 0.7239)
      (xy -0.3421 0.7239)
      (xy -0.3421 -0.7262)
      (xy -1.0922 -0.7262)
    )

    (stroke (width 0) (type default)) (fill solid) (layer "F.Fab") (tstamp c871ca67-34e1-43c7-9906-f155ae04b4c4))
  (fp_poly
    (pts
      (xy 0.3556 0.7239)
      (xy 1.1057 0.7239)
      (xy 1.1057 -0.7262)
      (xy 0.3556 -0.7262)
    )

    (stroke (width 0) (type default)) (fill solid) (layer "F.Fab") (tstamp 06240e2d-f371-42ad-8508-f32a07ceddd7))
  (pad "1" smd rect (at -0.95 0) (size 1.24 1.5) (layers "F.Cu" "F.Paste" "F.Mask")
    (solder_mask_margin 0.0508) (thermal_bridge_angle 45) (tstamp 8f173805-b9c3-4209-9300-4d6708efd0ff))
  (pad "2" smd rect (at 0.95 0) (size 1.24 1.5) (layers "F.Cu" "F.Paste" "F.Mask")
    (solder_mask_margin 0.0508) (thermal_bridge_angle 45) (tstamp d7915bc0-2ac6-4ff0-b553-1216e1849ac8))
)
