(footprint "PCBFEAT-REV-040" (version 20221018) (generator pcbnew)
  (layer "F.Cu")
  (descr "<b>Revision Level Field</b> - 40 mil<p>\nSet version with global board attribute '>REV'")
  (fp_text reference "REF**" (at 0 0) (layer "F.SilkS")
      (effects (font (size 1.27 1.27) (thickness 0.15)))
    (tstamp 3281d67e-7286-48c2-a09f-dbc62eb09bf8)
  )
  (fp_text value "" (at 0 0) (layer "F.Fab")
      (effects (font (size 1.27 1.27) (thickness 0.15)))
    (tstamp ce45aff6-437d-4004-8e89-460950c9be0c)
  )
  (fp_text user "${REV}" (at -0.3556 0.508) (layer "F.SilkS")
      (effects (font (size 0.8128 0.8128) (thickness 0.2032)) (justify left bottom))
    (tstamp e2ea7545-84be-4148-aefa-4f9999908074)
  )
  (fp_circle (center 0 0) (end 0.898 0)
    (stroke (width 0.3048) (type solid)) (fill none) (layer "F.SilkS") (tstamp 37e24a73-7e4f-4372-afaf-8d739fc5de19))
)
